Final_Project_DSC441
…
##        online_boarding  inflight_wifi_service           seat_comfort 
##             15022.4929              9880.9940              6826.3420 
## ease_of_online_booking         type_of_travel         customer_class 
##              5843.4752              5786.7058              5772.8298 
## inflight_entertainment                    age 
##              4657.2833               524.7486

#create hyperparameters combinations to be tested in gridsearch
gs <- list(minsplit = c(1,2,3,4,5,6,7,8,9,10), 
           maxdepth = c(1,2,3,4,5,6,7,8)) %>% 
      cross_df()
gs

## # A tibble: 80 x 2
##    minsplit maxdepth
##       <dbl>    <dbl>
##  1        1        1
##  2        2        1
##  3        3        1
##  4        4        1
##  5        5        1
##  6        6        1
##  7        7        1
##  8        8        1
##  9        9        1
## 10       10        1
## #  with 70 more rows

#function to create decision trees with inputted control variables
mod <- function(...) {
  rpart(satisfaction ~ ., data = training, control = rpart.control(...))
}

#passes in grid of hyperparameter values into mod fucnction 
gs <- gs %>% mutate(fit = pmap(gs, mod))

gs

## # A tibble: 80 x 3
##    minsplit maxdepth fit    
##       <dbl>    <dbl> <list> 
##  1        1        1 <rpart>
##  2        2        1 <rpart>
##  3        3        1 <rpart>
##  4        4        1 <rpart>
##  5        5        1 <rpart>
##  6        6        1 <rpart>
##  7        7        1 <rpart>
##  8        8        1 <rpart>
##  9        9        1 <rpart>
## 10       10        1 <rpart>
## #  with 70 more rows
…
test_features <- testing %>% select(-satisfaction) # set test_features
test_labels <- testing$satisfaction #set values to test_labels 

gs <- gs %>% 
  mutate(test_accuracy = map_dbl(fit, compute_accuracy, 
                                 test_features, test_labels)) #input values to compute_accuracy, use map_dbl to compute accuracy for entire grid

gs 

## # A tibble: 80 x 4
##    minsplit maxdepth fit     test_accuracy
##       <dbl>    <dbl> <list>          <dbl>
##  1        1        1 <rpart>         0.784
##  2        2        1 <rpart>         0.784
##  3        3        1 <rpart>         0.784
##  4        4        1 <rpart>         0.784
##  5        5        1 <rpart>         0.784
##  6        6        1 <rpart>         0.784
##  7        7        1 <rpart>         0.784
##  8        8        1 <rpart>         0.784
##  9        9        1 <rpart>         0.784
## 10       10        1 <rpart>         0.784
## #  with 70 more rows

gs <- gs %>% arrange(desc(test_accuracy), desc(minsplit), maxdepth) #arrange hyperparameter values in decending order of accuracy score
gs 

## # A tibble: 80 x 4
##    minsplit maxdepth fit     test_accuracy
##       <dbl>    <dbl> <list>          <dbl>
##  1       10        3 <rpart>         0.866
##  2       10        4 <rpart>         0.866
##  3       10        5 <rpart>         0.866
##  4       10        6 <rpart>         0.866
##  5       10        7 <rpart>         0.866
##  6       10        8 <rpart>         0.866
##  7        9        3 <rpart>         0.866
##  8        9        4 <rpart>         0.866
##  9        9        5 <rpart>         0.866
## 10        9        6 <rpart>         0.866
## #  with 70 more rows
…
